{"name":"getUsers","id":"SerenityInitialTests:getUsers","testCaseName":"SerenityInitialTests","testSteps":[{"number":1,"description":"Julian the trainer executes a GET on the resource /users?page2","duration":554,"startTime":"2020-04-19T20:03:43.095-05:00[America/Bogota]","result":"SUCCESS","precondition":false,"children":[{"number":2,"description":"GET https://reqres.in/api/users?page2\r\r","duration":0,"startTime":"2020-04-19T20:03:43.648-05:00[America/Bogota]","result":"SUCCESS","restQuery":{"method":"GET","path":"https://reqres.in/api/users?page2\r\r","content":"\r","contentType":"null","requestHeaders":"Accept\u003d*/*\r\r","requestCookies":"\r\r","responseHeaders":"Date: Mon, 20 Apr 2020 01:03:42 GMT\nContent-Type: application/json; charset\u003dutf-8\nTransfer-Encoding: chunked\nConnection: keep-alive\nSet-Cookie: __cfduid\u003ddf3f02734637a4bf64fb46ed6d861cbc61587344622; expires\u003dWed, 20-May-20 01:03:42 GMT; path\u003d/; domain\u003d.reqres.in; HttpOnly; SameSite\u003dLax; Secure\nX-Powered-By: Express\nAccess-Control-Allow-Origin: *\nEtag: W/\"4c5-znzuruTKwnH4068T7ikF88YcCME\"\nVia: 1.1 vegur\nCache-Control: max-age\u003d14400\nCF-Cache-Status: HIT\nAge: 238\nExpect-CT: max-age\u003d604800, report-uri\u003d\"https://report-uri.cloudflare.com/cdn-cgi/beacon/expect-ct\"\nVary: Accept-Encoding\nServer: cloudflare\nCF-RAY: 586af272d89267e9-EZE\nContent-Encoding: gzip\ncf-request-id: 0236b5dbca000067e979382200000001\r","responseCookies":"__cfduid\u003ddf3f02734637a4bf64fb46ed6d861cbc61587344622;Path\u003d/;Domain\u003d.reqres.in;Secure;HttpOnly;Expires\u003d20/05/20 01:03 AM\r","responseBody":"{\n    \"page\": 1,\n    \"per_page\": 6,\n    \"total\": 12,\n    \"total_pages\": 2,\n    \"data\": [\n        {\n            \"id\": 1,\n            \"email\": \"george.bluth@reqres.in\",\n            \"first_name\": \"George\",\n            \"last_name\": \"Bluth\",\n            \"avatar\": \"https://s3.amazonaws.com/uifaces/faces/twitter/calebogden/128.jpg\"\n        },\n        {\n            \"id\": 2,\n            \"email\": \"janet.weaver@reqres.in\",\n            \"first_name\": \"Janet\",\n            \"last_name\": \"Weaver\",\n            \"avatar\": \"https://s3.amazonaws.com/uifaces/faces/twitter/josephstein/128.jpg\"\n        },\n        {\n            \"id\": 3,\n            \"email\": \"emma.wong@reqres.in\",\n            \"first_name\": \"Emma\",\n            \"last_name\": \"Wong\",\n            \"avatar\": \"https://s3.amazonaws.com/uifaces/faces/twitter/olegpogodaev/128.jpg\"\n        },\n        {\n            \"id\": 4,\n            \"email\": \"eve.holt@reqres.in\",\n            \"first_name\": \"Eve\",\n            \"last_name\": \"Holt\",\n            \"avatar\": \"https://s3.amazonaws.com/uifaces/faces/twitter/marcoramires/128.jpg\"\n        },\n        {\n            \"id\": 5,\n            \"email\": \"charles.morris@reqres.in\",\n            \"first_name\": \"Charles\",\n            \"last_name\": \"Morris\",\n            \"avatar\": \"https://s3.amazonaws.com/uifaces/faces/twitter/stephenmoon/128.jpg\"\n        },\n        {\n            \"id\": 6,\n            \"email\": \"tracey.ramos@reqres.in\",\n            \"first_name\": \"Tracey\",\n            \"last_name\": \"Ramos\",\n            \"avatar\": \"https://s3.amazonaws.com/uifaces/faces/twitter/bigmancho/128.jpg\"\n        }\n    ],\n    \"ad\": {\n        \"company\": \"StatusCode Weekly\",\n        \"url\": \"http://statuscode.org/\",\n        \"text\": \"A weekly newsletter focusing on software development, infrastructure, the server, performance, and the stack end of things.\"\n    }\n}","statusCode":200},"precondition":false}]}],"userStory":{"id":"SerenityInitialTests","storyName":"Serenity initial tests","storyClassName":"SerenityInitialTests","path":"","type":"story"},"featureTag":{"name":"Serenity initial tests","type":"story"},"title":"Get users","tags":[{"name":"Serenity initial tests","type":"story"}],"startTime":"2020-04-19T20:03:43.090-05:00[America/Bogota]","duration":560,"projectKey":"","manual":false,"testSource":"JUnit","actors":[{"name":"Julian the trainer","can":["call an API at https://reqres.in/api"]}],"result":"SUCCESS"}